108.02.06 19:44 B D:\ian\v2beta\admin\FCKeditor\editor\dialog\fck_docprops\fck_document_preview.html <-- Ipswitch /public_html/v2beta/admin/FCKeditor/editor/dialog/fck_docprops fck_document_preview.html
108.02.06 19:44 B D:\ian\v2beta\admin\FCKeditor\editor\dialog\fck_docprops\index.php <-- Ipswitch /public_html/v2beta/admin/FCKeditor/editor/dialog/fck_docprops index.php
2009.01.19 20:42 B E:\Prima Daya mandiri -2\primadayamandiri\control\FCKeditor\editor\dialog\fck_docprops\fck_document_preview.html --> primadayamandiri.com /public_html/control/FCKeditor/editor/dialog/fck_docprops fck_document_preview.html
2009.01.19 20:42 B E:\Prima Daya mandiri -2\primadayamandiri\control\FCKeditor\editor\dialog\fck_docprops\index.php --> primadayamandiri.com /public_html/control/FCKeditor/editor/dialog/fck_docprops index.php
2009.01.19 20:42 B E:\Prima Daya mandiri -2\primadayamandiri\control\FCKeditor\editor\dialog\fck_docprops\WS_FTP.LOG --> primadayamandiri.com /public_html/control/FCKeditor/editor/dialog/fck_docprops WS_FTP.LOG
