108.02.06 19:45 B D:\ian\v2beta\admin\FCKeditor\editor\dialog\fck_spellerpages\spellerpages\server-scripts\index.php <-- Ipswitch /public_html/v2beta/admin/FCKeditor/editor/dialog/fck_spellerpages/spellerpages/server-scripts index.php
108.02.06 19:45 B D:\ian\v2beta\admin\FCKeditor\editor\dialog\fck_spellerpages\spellerpages\server-scripts\spellchecker.cfm <-- Ipswitch /public_html/v2beta/admin/FCKeditor/editor/dialog/fck_spellerpages/spellerpages/server-scripts spellchecker.cfm
108.02.06 19:45 B D:\ian\v2beta\admin\FCKeditor\editor\dialog\fck_spellerpages\spellerpages\server-scripts\spellchecker.php <-- Ipswitch /public_html/v2beta/admin/FCKeditor/editor/dialog/fck_spellerpages/spellerpages/server-scripts spellchecker.php
108.02.06 19:45 B D:\ian\v2beta\admin\FCKeditor\editor\dialog\fck_spellerpages\spellerpages\server-scripts\spellchecker.pl <-- Ipswitch /public_html/v2beta/admin/FCKeditor/editor/dialog/fck_spellerpages/spellerpages/server-scripts spellchecker.pl
2009.01.19 20:43 B E:\Prima Daya mandiri -2\primadayamandiri\control\FCKeditor\editor\dialog\fck_spellerpages\spellerpages\server-scripts\index.php --> primadayamandiri.com /public_html/control/FCKeditor/editor/dialog/fck_spellerpages/spellerpages/server-scripts index.php
2009.01.19 20:43 B E:\Prima Daya mandiri -2\primadayamandiri\control\FCKeditor\editor\dialog\fck_spellerpages\spellerpages\server-scripts\spellchecker.cfm --> primadayamandiri.com /public_html/control/FCKeditor/editor/dialog/fck_spellerpages/spellerpages/server-scripts spellchecker.cfm
2009.01.19 20:43 B E:\Prima Daya mandiri -2\primadayamandiri\control\FCKeditor\editor\dialog\fck_spellerpages\spellerpages\server-scripts\spellchecker.php --> primadayamandiri.com /public_html/control/FCKeditor/editor/dialog/fck_spellerpages/spellerpages/server-scripts spellchecker.php
2009.01.19 20:43 B E:\Prima Daya mandiri -2\primadayamandiri\control\FCKeditor\editor\dialog\fck_spellerpages\spellerpages\server-scripts\spellchecker.pl --> primadayamandiri.com /public_html/control/FCKeditor/editor/dialog/fck_spellerpages/spellerpages/server-scripts spellchecker.pl
2009.01.19 20:43 B E:\Prima Daya mandiri -2\primadayamandiri\control\FCKeditor\editor\dialog\fck_spellerpages\spellerpages\server-scripts\WS_FTP.LOG --> primadayamandiri.com /public_html/control/FCKeditor/editor/dialog/fck_spellerpages/spellerpages/server-scripts WS_FTP.LOG
