108.02.06 19:47 B D:\ian\v2beta\admin\FCKeditor\editor\filemanager\upload\php\config.php <-- Ipswitch /public_html/v2beta/admin/FCKeditor/editor/filemanager/upload/php config.php
108.02.06 19:47 B D:\ian\v2beta\admin\FCKeditor\editor\filemanager\upload\php\index.php <-- Ipswitch /public_html/v2beta/admin/FCKeditor/editor/filemanager/upload/php index.php
108.02.06 19:47 B D:\ian\v2beta\admin\FCKeditor\editor\filemanager\upload\php\upload.php <-- Ipswitch /public_html/v2beta/admin/FCKeditor/editor/filemanager/upload/php upload.php
108.02.06 19:47 B D:\ian\v2beta\admin\FCKeditor\editor\filemanager\upload\php\util.php <-- Ipswitch /public_html/v2beta/admin/FCKeditor/editor/filemanager/upload/php util.php
2009.01.19 20:58 B E:\Prima Daya mandiri -2\primadayamandiri\control\FCKeditor\editor\filemanager\upload\php\config.php --> primadayamandiri.com /public_html/control/FCKeditor/editor/filemanager/upload/php config.php
2009.01.19 20:58 B E:\Prima Daya mandiri -2\primadayamandiri\control\FCKeditor\editor\filemanager\upload\php\index.php --> primadayamandiri.com /public_html/control/FCKeditor/editor/filemanager/upload/php index.php
2009.01.19 20:58 B E:\Prima Daya mandiri -2\primadayamandiri\control\FCKeditor\editor\filemanager\upload\php\upload.php --> primadayamandiri.com /public_html/control/FCKeditor/editor/filemanager/upload/php upload.php
2009.01.19 20:58 B E:\Prima Daya mandiri -2\primadayamandiri\control\FCKeditor\editor\filemanager\upload\php\util.php --> primadayamandiri.com /public_html/control/FCKeditor/editor/filemanager/upload/php util.php
2009.01.19 20:58 B E:\Prima Daya mandiri -2\primadayamandiri\control\FCKeditor\editor\filemanager\upload\php\WS_FTP.LOG --> primadayamandiri.com /public_html/control/FCKeditor/editor/filemanager/upload/php WS_FTP.LOG
