108.02.06 19:47 B D:\ian\v2beta\admin\FCKeditor\editor\filemanager\upload\index.php <-- Ipswitch /public_html/v2beta/admin/FCKeditor/editor/filemanager/upload index.php
108.02.06 19:47 B D:\ian\v2beta\admin\FCKeditor\editor\filemanager\upload\test.html <-- Ipswitch /public_html/v2beta/admin/FCKeditor/editor/filemanager/upload test.html
2009.01.19 20:58 B E:\Prima Daya mandiri -2\primadayamandiri\control\FCKeditor\editor\filemanager\upload\index.php --> primadayamandiri.com /public_html/control/FCKeditor/editor/filemanager/upload index.php
2009.01.19 20:58 B E:\Prima Daya mandiri -2\primadayamandiri\control\FCKeditor\editor\filemanager\upload\test.html --> primadayamandiri.com /public_html/control/FCKeditor/editor/filemanager/upload test.html
2009.01.19 20:58 B E:\Prima Daya mandiri -2\primadayamandiri\control\FCKeditor\editor\filemanager\upload\WS_FTP.LOG --> primadayamandiri.com /public_html/control/FCKeditor/editor/filemanager/upload WS_FTP.LOG
