108.02.06 19:45 B D:\ian\v2beta\admin\FCKeditor\editor\dialog\fck_universalkey\00.gif <-- Ipswitch /public_html/v2beta/admin/FCKeditor/editor/dialog/fck_universalkey 00.gif
108.02.06 19:45 B D:\ian\v2beta\admin\FCKeditor\editor\dialog\fck_universalkey\data.js <-- Ipswitch /public_html/v2beta/admin/FCKeditor/editor/dialog/fck_universalkey data.js
108.02.06 19:45 B D:\ian\v2beta\admin\FCKeditor\editor\dialog\fck_universalkey\diacritic.js <-- Ipswitch /public_html/v2beta/admin/FCKeditor/editor/dialog/fck_universalkey diacritic.js
108.02.06 19:45 B D:\ian\v2beta\admin\FCKeditor\editor\dialog\fck_universalkey\dialogue.js <-- Ipswitch /public_html/v2beta/admin/FCKeditor/editor/dialog/fck_universalkey dialogue.js
108.02.06 19:45 B D:\ian\v2beta\admin\FCKeditor\editor\dialog\fck_universalkey\fck_universalkey.css <-- Ipswitch /public_html/v2beta/admin/FCKeditor/editor/dialog/fck_universalkey fck_universalkey.css
108.02.06 19:45 B D:\ian\v2beta\admin\FCKeditor\editor\dialog\fck_universalkey\index.php <-- Ipswitch /public_html/v2beta/admin/FCKeditor/editor/dialog/fck_universalkey index.php
108.02.06 19:45 B D:\ian\v2beta\admin\FCKeditor\editor\dialog\fck_universalkey\keyboard_layout.gif <-- Ipswitch /public_html/v2beta/admin/FCKeditor/editor/dialog/fck_universalkey keyboard_layout.gif
108.02.06 19:45 B D:\ian\v2beta\admin\FCKeditor\editor\dialog\fck_universalkey\multihexa.js <-- Ipswitch /public_html/v2beta/admin/FCKeditor/editor/dialog/fck_universalkey multihexa.js
2009.01.19 20:44 B E:\Prima Daya mandiri -2\primadayamandiri\control\FCKeditor\editor\dialog\fck_universalkey\00.gif --> primadayamandiri.com /public_html/control/FCKeditor/editor/dialog/fck_universalkey 00.gif
2009.01.19 20:44 B E:\Prima Daya mandiri -2\primadayamandiri\control\FCKeditor\editor\dialog\fck_universalkey\data.js --> primadayamandiri.com /public_html/control/FCKeditor/editor/dialog/fck_universalkey data.js
2009.01.19 20:44 B E:\Prima Daya mandiri -2\primadayamandiri\control\FCKeditor\editor\dialog\fck_universalkey\diacritic.js --> primadayamandiri.com /public_html/control/FCKeditor/editor/dialog/fck_universalkey diacritic.js
2009.01.19 20:44 B E:\Prima Daya mandiri -2\primadayamandiri\control\FCKeditor\editor\dialog\fck_universalkey\dialogue.js --> primadayamandiri.com /public_html/control/FCKeditor/editor/dialog/fck_universalkey dialogue.js
2009.01.19 20:44 B E:\Prima Daya mandiri -2\primadayamandiri\control\FCKeditor\editor\dialog\fck_universalkey\fck_universalkey.css --> primadayamandiri.com /public_html/control/FCKeditor/editor/dialog/fck_universalkey fck_universalkey.css
2009.01.19 20:44 B E:\Prima Daya mandiri -2\primadayamandiri\control\FCKeditor\editor\dialog\fck_universalkey\index.php --> primadayamandiri.com /public_html/control/FCKeditor/editor/dialog/fck_universalkey index.php
2009.01.19 20:44 B E:\Prima Daya mandiri -2\primadayamandiri\control\FCKeditor\editor\dialog\fck_universalkey\keyboard_layout.gif --> primadayamandiri.com /public_html/control/FCKeditor/editor/dialog/fck_universalkey keyboard_layout.gif
2009.01.19 20:44 B E:\Prima Daya mandiri -2\primadayamandiri\control\FCKeditor\editor\dialog\fck_universalkey\multihexa.js --> primadayamandiri.com /public_html/control/FCKeditor/editor/dialog/fck_universalkey multihexa.js
2009.01.19 20:44 B E:\Prima Daya mandiri -2\primadayamandiri\control\FCKeditor\editor\dialog\fck_universalkey\WS_FTP.LOG --> primadayamandiri.com /public_html/control/FCKeditor/editor/dialog/fck_universalkey WS_FTP.LOG
