108.02.06 19:51 B D:\ian\v2beta\admin\FCKeditor\editor\plugins\simplecommands\fckplugin.js <-- Ipswitch /public_html/v2beta/admin/FCKeditor/editor/plugins/simplecommands fckplugin.js
2009.01.19 21:03 B E:\Prima Daya mandiri -2\primadayamandiri\control\FCKeditor\editor\plugins\simplecommands\fckplugin.js --> primadayamandiri.com /public_html/control/FCKeditor/editor/plugins/simplecommands fckplugin.js
2009.01.19 21:03 B E:\Prima Daya mandiri -2\primadayamandiri\control\FCKeditor\editor\plugins\simplecommands\index.php --> primadayamandiri.com /public_html/control/FCKeditor/editor/plugins/simplecommands index.php
2009.01.19 21:03 B E:\Prima Daya mandiri -2\primadayamandiri\control\FCKeditor\editor\plugins\simplecommands\WS_FTP.LOG --> primadayamandiri.com /public_html/control/FCKeditor/editor/plugins/simplecommands WS_FTP.LOG
