108.02.06 19:51 B D:\ian\v2beta\admin\FCKeditor\editor\skins\default\fck_dialog.css <-- Ipswitch /public_html/v2beta/admin/FCKeditor/editor/skins/default fck_dialog.css
108.02.06 19:51 B D:\ian\v2beta\admin\FCKeditor\editor\skins\default\fck_editor.css <-- Ipswitch /public_html/v2beta/admin/FCKeditor/editor/skins/default fck_editor.css
108.02.06 19:51 B D:\ian\v2beta\admin\FCKeditor\editor\skins\default\fck_strip.gif <-- Ipswitch /public_html/v2beta/admin/FCKeditor/editor/skins/default fck_strip.gif
108.02.06 19:51 B D:\ian\v2beta\admin\FCKeditor\editor\skins\default\index.php <-- Ipswitch /public_html/v2beta/admin/FCKeditor/editor/skins/default index.php
2009.01.19 21:04 B E:\Prima Daya mandiri -2\primadayamandiri\control\FCKeditor\editor\skins\default\fck_dialog.css --> primadayamandiri.com /public_html/control/FCKeditor/editor/skins/default fck_dialog.css
2009.01.19 21:04 B E:\Prima Daya mandiri -2\primadayamandiri\control\FCKeditor\editor\skins\default\fck_editor.css --> primadayamandiri.com /public_html/control/FCKeditor/editor/skins/default fck_editor.css
2009.01.19 21:04 B E:\Prima Daya mandiri -2\primadayamandiri\control\FCKeditor\editor\skins\default\fck_strip.gif --> primadayamandiri.com /public_html/control/FCKeditor/editor/skins/default fck_strip.gif
2009.01.19 21:04 B E:\Prima Daya mandiri -2\primadayamandiri\control\FCKeditor\editor\skins\default\index.php --> primadayamandiri.com /public_html/control/FCKeditor/editor/skins/default index.php
2009.01.19 21:04 B E:\Prima Daya mandiri -2\primadayamandiri\control\FCKeditor\editor\skins\default\WS_FTP.LOG --> primadayamandiri.com /public_html/control/FCKeditor/editor/skins/default WS_FTP.LOG
