108.02.06 19:47 B D:\ian\v2beta\admin\FCKeditor\editor\filemanager\browser\index.php <-- Ipswitch /public_html/v2beta/admin/FCKeditor/editor/filemanager/browser index.php
2009.01.19 20:58 B E:\Prima Daya mandiri -2\primadayamandiri\control\FCKeditor\editor\filemanager\browser\index.php --> primadayamandiri.com /public_html/control/FCKeditor/editor/filemanager/browser index.php
2009.01.19 20:58 B E:\Prima Daya mandiri -2\primadayamandiri\control\FCKeditor\editor\filemanager\browser\WS_FTP.LOG --> primadayamandiri.com /public_html/control/FCKeditor/editor/filemanager/browser WS_FTP.LOG
