108.02.06 19:46 B D:\ian\v2beta\admin\FCKeditor\editor\filemanager\browser\default\connectors\asp\basexml.asp <-- Ipswitch /public_html/v2beta/admin/FCKeditor/editor/filemanager/browser/default/connectors/asp basexml.asp
108.02.06 19:46 B D:\ian\v2beta\admin\FCKeditor\editor\filemanager\browser\default\connectors\asp\class_upload.asp <-- Ipswitch /public_html/v2beta/admin/FCKeditor/editor/filemanager/browser/default/connectors/asp class_upload.asp
108.02.06 19:46 B D:\ian\v2beta\admin\FCKeditor\editor\filemanager\browser\default\connectors\asp\commands.asp <-- Ipswitch /public_html/v2beta/admin/FCKeditor/editor/filemanager/browser/default/connectors/asp commands.asp
108.02.06 19:46 B D:\ian\v2beta\admin\FCKeditor\editor\filemanager\browser\default\connectors\asp\config.asp <-- Ipswitch /public_html/v2beta/admin/FCKeditor/editor/filemanager/browser/default/connectors/asp config.asp
108.02.06 19:46 B D:\ian\v2beta\admin\FCKeditor\editor\filemanager\browser\default\connectors\asp\connector.asp <-- Ipswitch /public_html/v2beta/admin/FCKeditor/editor/filemanager/browser/default/connectors/asp connector.asp
108.02.06 19:46 B D:\ian\v2beta\admin\FCKeditor\editor\filemanager\browser\default\connectors\asp\io.asp <-- Ipswitch /public_html/v2beta/admin/FCKeditor/editor/filemanager/browser/default/connectors/asp io.asp
108.02.06 19:46 B D:\ian\v2beta\admin\FCKeditor\editor\filemanager\browser\default\connectors\asp\util.asp <-- Ipswitch /public_html/v2beta/admin/FCKeditor/editor/filemanager/browser/default/connectors/asp util.asp
2009.01.19 20:51 B E:\Prima Daya mandiri -2\primadayamandiri\control\FCKeditor\editor\filemanager\browser\default\connectors\asp\basexml.asp --> primadayamandiri.com /public_html/control/FCKeditor/editor/filemanager/browser/default/connectors/asp basexml.asp
2009.01.19 20:51 B E:\Prima Daya mandiri -2\primadayamandiri\control\FCKeditor\editor\filemanager\browser\default\connectors\asp\class_upload.asp --> primadayamandiri.com /public_html/control/FCKeditor/editor/filemanager/browser/default/connectors/asp class_upload.asp
2009.01.19 20:51 B E:\Prima Daya mandiri -2\primadayamandiri\control\FCKeditor\editor\filemanager\browser\default\connectors\asp\commands.asp --> primadayamandiri.com /public_html/control/FCKeditor/editor/filemanager/browser/default/connectors/asp commands.asp
2009.01.19 20:51 B E:\Prima Daya mandiri -2\primadayamandiri\control\FCKeditor\editor\filemanager\browser\default\connectors\asp\config.asp --> primadayamandiri.com /public_html/control/FCKeditor/editor/filemanager/browser/default/connectors/asp config.asp
2009.01.19 20:51 B E:\Prima Daya mandiri -2\primadayamandiri\control\FCKeditor\editor\filemanager\browser\default\connectors\asp\connector.asp --> primadayamandiri.com /public_html/control/FCKeditor/editor/filemanager/browser/default/connectors/asp connector.asp
2009.01.19 20:51 B E:\Prima Daya mandiri -2\primadayamandiri\control\FCKeditor\editor\filemanager\browser\default\connectors\asp\io.asp --> primadayamandiri.com /public_html/control/FCKeditor/editor/filemanager/browser/default/connectors/asp io.asp
2009.01.19 20:51 B E:\Prima Daya mandiri -2\primadayamandiri\control\FCKeditor\editor\filemanager\browser\default\connectors\asp\util.asp --> primadayamandiri.com /public_html/control/FCKeditor/editor/filemanager/browser/default/connectors/asp util.asp
2009.01.19 20:51 B E:\Prima Daya mandiri -2\primadayamandiri\control\FCKeditor\editor\filemanager\browser\default\connectors\asp\WS_FTP.LOG --> primadayamandiri.com /public_html/control/FCKeditor/editor/filemanager/browser/default/connectors/asp WS_FTP.LOG
