2009.01.19 20:50 B E:\Prima Daya mandiri -2\primadayamandiri\control\FCKeditor\fckconfig.js --> primadayamandiri.com /public_html/control/FCKeditor fckconfig.js
2009.01.19 20:50 B E:\Prima Daya mandiri -2\primadayamandiri\control\FCKeditor\fckeditor.js --> primadayamandiri.com /public_html/control/FCKeditor fckeditor.js
2009.01.19 20:50 B E:\Prima Daya mandiri -2\primadayamandiri\control\FCKeditor\fckeditor.php --> primadayamandiri.com /public_html/control/FCKeditor fckeditor.php
2009.01.19 20:50 B E:\Prima Daya mandiri -2\primadayamandiri\control\FCKeditor\fckstyles.xml --> primadayamandiri.com /public_html/control/FCKeditor fckstyles.xml
2009.01.19 20:50 B E:\Prima Daya mandiri -2\primadayamandiri\control\FCKeditor\fcktemplates.xml --> primadayamandiri.com /public_html/control/FCKeditor fcktemplates.xml
2009.01.19 20:50 B E:\Prima Daya mandiri -2\primadayamandiri\control\FCKeditor\index.php --> primadayamandiri.com /public_html/control/FCKeditor index.php
