108.02.06 19:46 B D:\ian\v2beta\admin\FCKeditor\editor\filemanager\browser\default\connectors\aspx\connector.aspx <-- Ipswitch /public_html/v2beta/admin/FCKeditor/editor/filemanager/browser/default/connectors/aspx connector.aspx
2009.01.19 20:51 B E:\Prima Daya mandiri -2\primadayamandiri\control\FCKeditor\editor\filemanager\browser\default\connectors\aspx\connector.aspx --> primadayamandiri.com /public_html/control/FCKeditor/editor/filemanager/browser/default/connectors/aspx connector.aspx
2009.01.19 20:51 B E:\Prima Daya mandiri -2\primadayamandiri\control\FCKeditor\editor\filemanager\browser\default\connectors\aspx\WS_FTP.LOG --> primadayamandiri.com /public_html/control/FCKeditor/editor/filemanager/browser/default/connectors/aspx WS_FTP.LOG
