108.02.06 19:44 B D:\ian\v2beta\admin\FCKeditor\editor\css\fck_editorarea.css <-- Ipswitch /public_html/v2beta/admin/FCKeditor/editor/css fck_editorarea.css
108.02.06 19:44 B D:\ian\v2beta\admin\FCKeditor\editor\css\fck_internal.css <-- Ipswitch /public_html/v2beta/admin/FCKeditor/editor/css fck_internal.css
108.02.06 19:44 B D:\ian\v2beta\admin\FCKeditor\editor\css\fck_showtableborders_gecko.css <-- Ipswitch /public_html/v2beta/admin/FCKeditor/editor/css fck_showtableborders_gecko.css
108.02.06 19:44 B D:\ian\v2beta\admin\FCKeditor\editor\css\index.php <-- Ipswitch /public_html/v2beta/admin/FCKeditor/editor/css index.php
2009.01.19 20:41 B E:\Prima Daya mandiri -2\primadayamandiri\control\FCKeditor\editor\css\fck_editorarea.css --> primadayamandiri.com /public_html/control/FCKeditor/editor/css fck_editorarea.css
2009.01.19 20:41 B E:\Prima Daya mandiri -2\primadayamandiri\control\FCKeditor\editor\css\fck_internal.css --> primadayamandiri.com /public_html/control/FCKeditor/editor/css fck_internal.css
2009.01.19 20:41 B E:\Prima Daya mandiri -2\primadayamandiri\control\FCKeditor\editor\css\fck_showtableborders_gecko.css --> primadayamandiri.com /public_html/control/FCKeditor/editor/css fck_showtableborders_gecko.css
2009.01.19 20:41 B E:\Prima Daya mandiri -2\primadayamandiri\control\FCKeditor\editor\css\index.php --> primadayamandiri.com /public_html/control/FCKeditor/editor/css index.php
2009.01.19 20:41 B E:\Prima Daya mandiri -2\primadayamandiri\control\FCKeditor\editor\css\WS_FTP.LOG --> primadayamandiri.com /public_html/control/FCKeditor/editor/css WS_FTP.LOG
