108.02.06 19:47 B D:\ian\v2beta\admin\FCKeditor\editor\filemanager\browser\default\browser.css <-- Ipswitch /public_html/v2beta/admin/FCKeditor/editor/filemanager/browser/default browser.css
108.02.06 19:47 B D:\ian\v2beta\admin\FCKeditor\editor\filemanager\browser\default\browser.html <-- Ipswitch /public_html/v2beta/admin/FCKeditor/editor/filemanager/browser/default browser.html
108.02.06 19:47 B D:\ian\v2beta\admin\FCKeditor\editor\filemanager\browser\default\frmactualfolder.html <-- Ipswitch /public_html/v2beta/admin/FCKeditor/editor/filemanager/browser/default frmactualfolder.html
108.02.06 19:47 B D:\ian\v2beta\admin\FCKeditor\editor\filemanager\browser\default\frmcreatefolder.html <-- Ipswitch /public_html/v2beta/admin/FCKeditor/editor/filemanager/browser/default frmcreatefolder.html
108.02.06 19:47 B D:\ian\v2beta\admin\FCKeditor\editor\filemanager\browser\default\frmfolders.html <-- Ipswitch /public_html/v2beta/admin/FCKeditor/editor/filemanager/browser/default frmfolders.html
108.02.06 19:47 B D:\ian\v2beta\admin\FCKeditor\editor\filemanager\browser\default\frmresourceslist.html <-- Ipswitch /public_html/v2beta/admin/FCKeditor/editor/filemanager/browser/default frmresourceslist.html
108.02.06 19:47 B D:\ian\v2beta\admin\FCKeditor\editor\filemanager\browser\default\frmresourcetype.html <-- Ipswitch /public_html/v2beta/admin/FCKeditor/editor/filemanager/browser/default frmresourcetype.html
108.02.06 19:47 B D:\ian\v2beta\admin\FCKeditor\editor\filemanager\browser\default\frmupload.html <-- Ipswitch /public_html/v2beta/admin/FCKeditor/editor/filemanager/browser/default frmupload.html
108.02.06 19:47 B D:\ian\v2beta\admin\FCKeditor\editor\filemanager\browser\default\index.php <-- Ipswitch /public_html/v2beta/admin/FCKeditor/editor/filemanager/browser/default index.php
2009.01.19 20:57 B E:\Prima Daya mandiri -2\primadayamandiri\control\FCKeditor\editor\filemanager\browser\default\browser.css --> primadayamandiri.com /public_html/control/FCKeditor/editor/filemanager/browser/default browser.css
2009.01.19 20:57 B E:\Prima Daya mandiri -2\primadayamandiri\control\FCKeditor\editor\filemanager\browser\default\browser.html --> primadayamandiri.com /public_html/control/FCKeditor/editor/filemanager/browser/default browser.html
2009.01.19 20:57 B E:\Prima Daya mandiri -2\primadayamandiri\control\FCKeditor\editor\filemanager\browser\default\frmactualfolder.html --> primadayamandiri.com /public_html/control/FCKeditor/editor/filemanager/browser/default frmactualfolder.html
2009.01.19 20:57 B E:\Prima Daya mandiri -2\primadayamandiri\control\FCKeditor\editor\filemanager\browser\default\frmcreatefolder.html --> primadayamandiri.com /public_html/control/FCKeditor/editor/filemanager/browser/default frmcreatefolder.html
2009.01.19 20:57 B E:\Prima Daya mandiri -2\primadayamandiri\control\FCKeditor\editor\filemanager\browser\default\frmfolders.html --> primadayamandiri.com /public_html/control/FCKeditor/editor/filemanager/browser/default frmfolders.html
2009.01.19 20:57 B E:\Prima Daya mandiri -2\primadayamandiri\control\FCKeditor\editor\filemanager\browser\default\frmresourceslist.html --> primadayamandiri.com /public_html/control/FCKeditor/editor/filemanager/browser/default frmresourceslist.html
2009.01.19 20:57 B E:\Prima Daya mandiri -2\primadayamandiri\control\FCKeditor\editor\filemanager\browser\default\frmresourcetype.html --> primadayamandiri.com /public_html/control/FCKeditor/editor/filemanager/browser/default frmresourcetype.html
2009.01.19 20:58 B E:\Prima Daya mandiri -2\primadayamandiri\control\FCKeditor\editor\filemanager\browser\default\frmupload.html --> primadayamandiri.com /public_html/control/FCKeditor/editor/filemanager/browser/default frmupload.html
2009.01.19 20:58 B E:\Prima Daya mandiri -2\primadayamandiri\control\FCKeditor\editor\filemanager\browser\default\index.php --> primadayamandiri.com /public_html/control/FCKeditor/editor/filemanager/browser/default index.php
2009.01.19 20:58 B E:\Prima Daya mandiri -2\primadayamandiri\control\FCKeditor\editor\filemanager\browser\default\WS_FTP.LOG --> primadayamandiri.com /public_html/control/FCKeditor/editor/filemanager/browser/default WS_FTP.LOG
